strava_analysis
…
data <- data |> janitor::clean_names()
data

# A tibble: 201 × 87
   activity_id activity_date    activity_name activity_type activity_description
         <dbl> <chr>            <chr>         <chr>         <chr>               
 1  8405125381 Jan 17, 2023, 8… Afternoon Run Run           <NA>                
 2  8405187111 Jan 17, 2023, 8… Afternoon Run Run           <NA>                
 3  8411187231 Jan 18, 2023, 1… Evening Run   Run           <NA>                
 4  8416073391 Jan 19, 2023, 8… Afternoon Run Run           <NA>                
 5  8416274053 Jan 19, 2023, 9… Afternoon Run Run           <NA>                
 6  8421284432 Jan 20, 2023, 8… Afternoon Run Run           <NA>                
 7  8426220243 Jan 21, 2023, 9… Afternoon Run Run           <NA>                
 8  8426310712 Jan 21, 2023, 9… Afternoon Run Run           <NA>                
 9  8464355932 Jan 28, 2023, 1… Evening Run   Run           <NA>                
10  8464607117 Jan 28, 2023, 1… Evening Run   Run           <NA>                
# ℹ 191 more rows
# ℹ 82 more variables: elapsed_time_6 <dbl>, distance_7 <dbl>,
#   max_heart_rate_8 <lgl>, relative_effort_9 <lgl>, commute_10 <lgl>,
#   activity_private_note <lgl>, activity_gear <lgl>, filename <chr>,
#   athlete_weight <lgl>, bike_weight <lgl>, elapsed_time_16 <dbl>,
#   moving_time <dbl>, distance_18 <dbl>, max_speed <dbl>, average_speed <dbl>,
#   elevation_gain <dbl>, elevation_loss <dbl>, elevation_low <dbl>, …

Select needed columns and only take runs

data_select <- data |> 
    select(activity_id:activity_type) |> 
    filter (activity_type == "Run")

Separate into date and time columns

data_split_date <- data_select |> 
    separate(activity_date, c('date', 'time'), sep = ", (?=[^,]*$)")
data_split_date

# A tibble: 195 × 5
   activity_id date         time        activity_name activity_type
         <dbl> <chr>        <chr>       <chr>         <chr>        
 1  8405125381 Jan 17, 2023 8:34:42 AM  Afternoon Run Run          
 2  8405187111 Jan 17, 2023 8:52:32 AM  Afternoon Run Run          
 3  8411187231 Jan 18, 2023 10:52:06 AM Evening Run   Run          
 4  8416073391 Jan 19, 2023 8:30:17 AM  Afternoon Run Run          
 5  8416274053 Jan 19, 2023 9:35:24 AM  Afternoon Run Run          
 6  8421284432 Jan 20, 2023 8:57:31 AM  Afternoon Run Run          
 7  8426220243 Jan 21, 2023 9:43:41 AM  Afternoon Run Run          
 8  8426310712 Jan 21, 2023 9:59:15 AM  Afternoon Run Run          
 9  8464355932 Jan 28, 2023 10:57:34 AM Evening Run   Run          
10  8464607117 Jan 28, 2023 11:35:47 AM Evening Run   Run          
# ℹ 185 more rows
…
